/* ****************************************************************************
  This Source Code Form is subject to the terms of the
  Open Hardware Description License, v. 1.0. If a copy
  of the OHDL was not distributed with this file, You
  can obtain one at http://juliusbaxter.net/ohdl/ohdl.txt

  Description: 

   Copyright (C) 2014 Authors

  Author(s): Jose T. de Sousa <jose.t.de.sousa@gmail.com>

***************************************************************************** */

