00000000
00000001
00000002
00000003
00000004
00000005
00000006
00000007
00000008
00000009
0000000a
0000000b
0000000c
0000000d
0000000e
0000000f
00000010
00000011
00000012
00000013
00000014
00000015
00000016
00000017
00000018
00000019
0000001a
0000001b
0000001c
0000001d
0000001e
0000001f
00000020
00000021
00000022
00000023
00000024
00000025
00000026
00000027
00000000
0fd258f9
1e183807
296bf293
30b1b01f
33333333
30b1b01f
296bf293
1e183807
0fd258f9
00000000
f02da707
e1e7c7f9
d6940d6d
cf4e4fe1
cccccccd
cf4e4fe1
d6940d6d
e1e7c7f9
f02da707
00000000
0fd258f9
1e183807
296bf293
30b1b01f
33333333
30b1b01f
296bf293
1e183807
0fd258f9
00000000
f02da707
e1e7c7f9
d6940d6d
cf4e4fe1
cccccccd
cf4e4fe1
d6940d6d
e1e7c7f9
f02da707
00000000
0fd258f9
1e183807
296bf293
30b1b01f
33333333
30b1b01f
296bf293
1e183807
0fd258f9
00000000
f02da707
33333333
cccccccd
33333333
cccccccd
33333333
cccccccd
33333333
cccccccd
33333333
cccccccd
33333333
cccccccd
33333333
cccccccd
33333333
cccccccd
33333333
cccccccd
33333333
cccccccd
33333333
cccccccd
33333333
cccccccd
33333333
cccccccd
33333333
cccccccd
33333333
cccccccd
33333333
cccccccd
33333333
cccccccd
33333333
cccccccd
33333333
cccccccd
33333333
cccccccd
33333333
cccccccd
33333333
cccccccd
33333333
cccccccd
33333333
cccccccd
33333333
cccccccd
33333333
cccccccd
